GSEA on mouse datasets
…
Warning in fgsea(fgsea_idx, fgsea_ranks, nperm = 1e+05, nproc = 6): There are ties in the preranked stats (7.91% of the list).
The order of those tied genes will be arbitrary, which may produce unexpected results.

Warning in fgsea(fgsea_idx, fgsea_ranks, nperm = 1e+05, nproc = 6): There are ties in the preranked stats (7.91% of the list).
The order of those tied genes will be arbitrary, which may produce unexpected results.

Warning in fgsea(fgsea_idx, fgsea_ranks, nperm = 1e+05, nproc = 6): There are ties in the preranked stats (7.91% of the list).
The order of those tied genes will be arbitrary, which may produce unexpected results.

3. Results

GSE97113_gseaResults_h$combTest

$mutantAging_2mth_vs_1mth
# A tibble: 50 x 5
   id                     Geneset                 wilkinsonp      fdr bonferroni
   <chr>                  <chr>                        <dbl>    <dbl>      <dbl>
 1 mutantAging_2mth_vs_1… HALLMARK_COAGULATION      2.97e-42 2.35e-41   3.93e-40
 2 mutantAging_2mth_vs_1… HALLMARK_HEME_METABOLI…   7.83e-42 5.11e-41   1.00e-39
 3 mutantAging_2mth_vs_1… HALLMARK_APICAL_JUNCTI…   2.08e-40 1.16e-39   2.58e-38
 4 mutantAging_2mth_vs_1… HALLMARK_MYOGENESIS       5.96e-40 2.98e-39   7.22e-38
 5 mutantAging_2mth_vs_1… HALLMARK_KRAS_SIGNALIN…   9.00e-40 4.36e-39   1.08e-37
 6 mutantAging_2mth_vs_1… HALLMARK_APICAL_SURFACE   4.33e-39 1.86e-38   5.03e-37
 7 mutantAging_2mth_vs_1… HALLMARK_ADIPOGENESIS     1.12e-37 3.73e-37   1.19e-35
 8 mutantAging_2mth_vs_1… HALLMARK_APOPTOSIS        4.56e-32 1.12e-31   4.10e-30
 9 mutantAging_2mth_vs_1… HALLMARK_MITOTIC_SPIND…   1.65e-31 3.74e-31   1.40e-29
10 mutantAging_2mth_vs_1… HALLMARK_UV_RESPONSE_DN   3.28e-30 7.23e-30   2.72e-28
# … with 40 more rows

$mutantAging_4mth_vs_1mth
# A tibble: 50 x 5
   id                   Geneset                   wilkinsonp      fdr bonferroni
   <chr>                <chr>                          <dbl>    <dbl>      <dbl>
 1 mutantAging_4mth_vs… HALLMARK_SPERMATOGENESIS    9.92e-52 1.32e-49   1.49e-49
 2 mutantAging_4mth_vs… HALLMARK_APOPTOSIS          1.76e-51 1.32e-49   2.62e-49
 3 mutantAging_4mth_vs… HALLMARK_KRAS_SIGNALING_…   1.15e-49 5.74e-48   1.70e-47
 4 mutantAging_4mth_vs… HALLMARK_ADIPOGENESIS       4.00e-48 1.46e-46   5.88e-46
 5 mutantAging_4mth_vs… HALLMARK_IL2_STAT5_SIGNA…   4.86e-48 1.46e-46   7.09e-46
 6 mutantAging_4mth_vs… HALLMARK_MYOGENESIS         9.37e-48 2.34e-46   1.36e-45
 7 mutantAging_4mth_vs… HALLMARK_P53_PATHWAY        1.13e-47 2.42e-46   1.63e-45
 8 mutantAging_4mth_vs… HALLMARK_UV_RESPONSE_UP     1.29e-47 2.42e-46   1.85e-45
 9 mutantAging_4mth_vs… HALLMARK_HEME_METABOLISM    3.73e-47 6.21e-46   5.29e-45
10 mutantAging_4mth_vs… HALLMARK_FATTY_ACID_META…   1.03e-46 1.55e-45   1.45e-44
# … with 40 more rows

$mutantAging_4mth_vs_2mth
# A tibble: 50 x 5
   id                   Geneset                   wilkinsonp      fdr bonferroni
   <chr>                <chr>                          <dbl>    <dbl>      <dbl>
 1 mutantAging_4mth_vs… HALLMARK_IL2_STAT5_SIGNA…   2.44e-43 2.15e-42   3.27e-41
 2 mutantAging_4mth_vs… HALLMARK_COAGULATION        5.32e-40 2.75e-39   6.49e-38
 3 mutantAging_4mth_vs… HALLMARK_HYPOXIA            2.85e-39 1.34e-38   3.39e-37
 4 mutantAging_4mth_vs… HALLMARK_IL6_JAK_STAT3_S…   1.19e-38 4.46e-38   1.32e-36
 5 mutantAging_4mth_vs… HALLMARK_KRAS_SIGNALING_…   3.07e-37 9.79e-37   3.19e-35
 6 mutantAging_4mth_vs… HALLMARK_UV_RESPONSE_DN     6.81e-36 2.08e-35   6.95e-34
 7 mutantAging_4mth_vs… HALLMARK_COMPLEMENT         7.69e-36 2.31e-35   7.77e-34
 8 mutantAging_4mth_vs… HALLMARK_XENOBIOTIC_META…   1.13e-35 3.32e-35   1.13e-33
 9 mutantAging_4mth_vs… HALLMARK_APOPTOSIS          1.73e-35 4.98e-35   1.71e-33
10 mutantAging_4mth_vs… HALLMARK_MYOGENESIS         2.24e-35 6.33e-35   2.19e-33
# … with 40 more rows

GSE140286_gseaResults_h$combTest

$aging_5XFAD_12vs3mth
# A tibble: 50 x 5
   id               Geneset                       wilkinsonp      fdr bonferroni
   <chr>            <chr>                              <dbl>    <dbl>      <dbl>
 1 aging_5XFAD_12v… HALLMARK_UV_RESPONSE_UP       0.00000360  3.57e-5    0.00146
 2 aging_5XFAD_12v… HALLMARK_APOPTOSIS            0.00000459  3.82e-5    0.00182
 3 aging_5XFAD_12v… HALLMARK_TNFA_SIGNALING_VIA_… 0.00000790  6.02e-5    0.00310
 4 aging_5XFAD_12v… HALLMARK_REACTIVE_OXYGEN_SPE… 0.0000179   1.06e-4    0.00672
 5 aging_5XFAD_12v… HALLMARK_COMPLEMENT           0.0000211   1.21e-4    0.00785
 6 aging_5XFAD_12v… HALLMARK_KRAS_SIGNALING_UP    0.0000377   1.95e-4    0.0137 
 7 aging_5XFAD_12v… HALLMARK_INTERFERON_GAMMA_RE… 0.0000514   2.42e-4    0.0185 
 8 aging_5XFAD_12v… HALLMARK_IL2_STAT5_SIGNALING  0.0000516   2.42e-4    0.0185 
 9 aging_5XFAD_12v… HALLMARK_INFLAMMATORY_RESPON… 0.0000517   2.42e-4    0.0185 
10 aging_5XFAD_12v… HALLMARK_ALLOGRAFT_REJECTION  0.0000517   2.42e-4    0.0185 
# … with 40 more rows

$aging_5XFAD_12vs6mth
# A tibble: 50 x 5
   id                Geneset                       wilkinsonp     fdr bonferroni
   <chr>             <chr>                              <dbl>   <dbl>      <dbl>
 1 aging_5XFAD_12vs… HALLMARK_COAGULATION           0.0000320 1.70e-4     0.0117
 2 aging_5XFAD_12vs… HALLMARK_ESTROGEN_RESPONSE_L…  0.0000453 2.29e-4     0.0164
 3 aging_5XFAD_12vs… HALLMARK_INTERFERON_GAMMA_RE…  0.0000594 2.44e-4     0.0207
 4 aging_5XFAD_12vs… HALLMARK_KRAS_SIGNALING_UP     0.0000595 2.44e-4     0.0207
 5 aging_5XFAD_12vs… HALLMARK_IL2_STAT5_SIGNALING   0.0000596 2.44e-4     0.0207
 6 aging_5XFAD_12vs… HALLMARK_ALLOGRAFT_REJECTION   0.0000597 2.44e-4     0.0207
 7 aging_5XFAD_12vs… HALLMARK_INFLAMMATORY_RESPON…  0.0000598 2.44e-4     0.0207
 8 aging_5XFAD_12vs… HALLMARK_XENOBIOTIC_METABOLI…  0.0000599 2.44e-4     0.0207
 9 aging_5XFAD_12vs… HALLMARK_ESTROGEN_RESPONSE_E…  0.0000601 2.44e-4     0.0207
10 aging_5XFAD_12vs… HALLMARK_TNFA_SIGNALING_VIA_…  0.0000602 2.44e-4     0.0207
# … with 40 more rows

$aging_5XFAD_6vs3mth
# A tibble: 50 x 5
   id              Geneset                        wilkinsonp      fdr bonferroni
   <chr>           <chr>                               <dbl>    <dbl>      <dbl>
 1 aging_5XFAD_6v… HALLMARK_APOPTOSIS             0.00000443  3.82e-5    0.00177
 2 aging_5XFAD_6v… HALLMARK_EPITHELIAL_MESENCHYM… 0.0000114   7.74e-5    0.00437
 3 aging_5XFAD_6v… HALLMARK_KRAS_SIGNALING_UP     0.0000161   9.93e-5    0.00609
 4 aging_5XFAD_6v… HALLMARK_ANGIOGENESIS          0.0000235   1.30e-4    0.00868
 5 aging_5XFAD_6v… HALLMARK_COMPLEMENT            0.0000250   1.37e-4    0.00921
 6 aging_5XFAD_6v… HALLMARK_UV_RESPONSE_DN        0.0000319   1.70e-4    0.0117 
 7 aging_5XFAD_6v… HALLMARK_ANDROGEN_RESPONSE     0.0000640   2.48e-4    0.0215 
 8 aging_5XFAD_6v… HALLMARK_INTERFERON_GAMMA_RES… 0.0000681   2.55e-4    0.0226 
 9 aging_5XFAD_6v… HALLMARK_INFLAMMATORY_RESPONSE 0.0000684   2.55e-4    0.0226 
10 aging_5XFAD_6v… HALLMARK_ALLOGRAFT_REJECTION   0.0000684   2.55e-4    0.0226 
# … with 40 more rows

$aging_WT_12vs3mth
# A tibble: 50 x 5
   id             Geneset                          wilkinsonp     fdr bonferroni
   <chr>          <chr>                                 <dbl>   <dbl>      <dbl>
 1 aging_WT_12vs… HALLMARK_OXIDATIVE_PHOSPHORYLAT…  0.0000612 2.45e-4     0.0207
 2 aging_WT_12vs… HALLMARK_ANGIOGENESIS             0.0000946 3.00e-4     0.0292
 3 aging_WT_12vs… HALLMARK_TGF_BETA_SIGNALING       0.0000985 3.04e-4     0.0301
 4 aging_WT_12vs… HALLMARK_IL6_JAK_STAT3_SIGNALING  0.000102  3.13e-4     0.0311
 5 aging_WT_12vs… HALLMARK_ANDROGEN_RESPONSE        0.000104  3.16e-4     0.0315
 6 aging_WT_12vs… HALLMARK_UV_RESPONSE_DN           0.000110  3.30e-4     0.0333
 7 aging_WT_12vs… HALLMARK_APOPTOSIS                0.000112  3.30e-4     0.0337
 8 aging_WT_12vs… HALLMARK_MITOTIC_SPINDLE          0.000115  3.30e-4     0.0346
 9 aging_WT_12vs… HALLMARK_EPITHELIAL_MESENCHYMAL…  0.000115  3.30e-4     0.0346
10 aging_WT_12vs… HALLMARK_TNFA_SIGNALING_VIA_NFKB  0.000115  3.30e-4     0.0346
# … with 40 more rows

$aging_WT_12vs6mth
# A tibble: 50 x 5
   id             Geneset                          wilkinsonp     fdr bonferroni
   <chr>          <chr>                                 <dbl>   <dbl>      <dbl>
 1 aging_WT_12vs… HALLMARK_OXIDATIVE_PHOSPHORYLAT…  0.0000795 2.72e-4     0.0258
 2 aging_WT_12vs… HALLMARK_MITOTIC_SPINDLE          0.0000806 2.72e-4     0.0261
 3 aging_WT_12vs… HALLMARK_E2F_TARGETS              0.000242  6.20e-4     0.0667
 4 aging_WT_12vs… HALLMARK_UV_RESPONSE_DN           0.000242  6.20e-4     0.0667
 5 aging_WT_12vs… HALLMARK_G2M_CHECKPOINT           0.000322  7.96e-4     0.0867
 6 aging_WT_12vs… HALLMARK_ANDROGEN_RESPONSE        0.0155    2.56e-2     1     
 7 aging_WT_12vs… HALLMARK_TGF_BETA_SIGNALING       0.0411    6.07e-2     1     
 8 aging_WT_12vs… HALLMARK_DNA_REPAIR               0.0573    8.34e-2     1     
 9 aging_WT_12vs… HALLMARK_ALLOGRAFT_REJECTION      0.0587    8.49e-2     1     
10 aging_WT_12vs… HALLMARK_REACTIVE_OXYGEN_SPECIE…  0.0614    8.79e-2     1     
# … with 40 more rows

$aging_WT_6vs3mth
# A tibble: 50 x 5
   id            Geneset                          wilkinsonp      fdr bonferroni
   <chr>         <chr>                                 <dbl>    <dbl>      <dbl>
 1 aging_WT_6vs… HALLMARK_UNFOLDED_PROTEIN_RESPO… 0.00000977  6.98e-5    0.00379
 2 aging_WT_6vs… HALLMARK_E2F_TARGETS             0.0000777   2.72e-4    0.0253 
 3 aging_WT_6vs… HALLMARK_APOPTOSIS               0.0000822   2.72e-4    0.0265 
 4 aging_WT_6vs… HALLMARK_P53_PATHWAY             0.0000822   2.72e-4    0.0265 
 5 aging_WT_6vs… HALLMARK_APICAL_JUNCTION         0.0000822   2.72e-4    0.0265 
 6 aging_WT_6vs… HALLMARK_EPITHELIAL_MESENCHYMAL… 0.0000822   2.72e-4    0.0265 
 7 aging_WT_6vs… HALLMARK_ESTROGEN_RESPONSE_LATE  0.0000822   2.72e-4    0.0265 
 8 aging_WT_6vs… HALLMARK_HYPOXIA                 0.0000822   2.72e-4    0.0265 
 9 aging_WT_6vs… HALLMARK_TNFA_SIGNALING_VIA_NFKB 0.0000824   2.72e-4    0.0265 
10 aging_WT_6vs… HALLMARK_ESTROGEN_RESPONSE_EARLY 0.0000824   2.72e-4    0.0265 
# … with 40 more rows

$effectOf5XFAD_12mth
# A tibble: 50 x 5
   id             Geneset                       wilkinsonp        fdr bonferroni
   <chr>          <chr>                              <dbl>      <dbl>      <dbl>
 1 effectOf5XFAD… HALLMARK_HEDGEHOG_SIGNALING     2.75e-10    4.22e-8    1.23e-7
 2 effectOf5XFAD… HALLMARK_APICAL_SURFACE         5.52e- 9    3.55e-7    2.45e-6
 3 effectOf5XFAD… HALLMARK_APOPTOSIS              2.30e- 8    1.29e-6    1.02e-5
 4 effectOf5XFAD… HALLMARK_UV_RESPONSE_UP         5.88e- 8    2.94e-6    2.60e-5
 5 effectOf5XFAD… HALLMARK_EPITHELIAL_MESENCHY…   8.60e- 8    3.52e-6    3.78e-5
 6 effectOf5XFAD… HALLMARK_ANGIOGENESIS           1.26e- 7    4.20e-6    5.52e-5
 7 effectOf5XFAD… HALLMARK_KRAS_SIGNALING_DN      1.46e- 7    4.35e-6    6.35e-5
 8 effectOf5XFAD… HALLMARK_TNFA_SIGNALING_VIA_…   1.55e- 7    4.35e-6    6.73e-5
 9 effectOf5XFAD… HALLMARK_TGF_BETA_SIGNALING     2.34e- 7    5.84e-6    1.01e-4
10 effectOf5XFAD… HALLMARK_UV_RESPONSE_DN         2.79e- 7    6.60e-6    1.20e-4
# … with 40 more rows

$effectOf5XFAD_3mth
# A tibble: 50 x 5
   id               Geneset                      wilkinsonp       fdr bonferroni
   <chr>            <chr>                             <dbl>     <dbl>      <dbl>
 1 effectOf5XFAD_3… HALLMARK_APICAL_SURFACE         1.23e-7   4.20e-6  0.0000538
 2 effectOf5XFAD_3… HALLMARK_HEDGEHOG_SIGNALING     1.95e-7   5.17e-6  0.0000848
 3 effectOf5XFAD_3… HALLMARK_CHOLESTEROL_HOMEOS…    8.99e-5   2.89e-4  0.0280   
 4 effectOf5XFAD_3… HALLMARK_INTERFERON_ALPHA_R…    9.30e-5   2.97e-4  0.0288   
 5 effectOf5XFAD_3… HALLMARK_ALLOGRAFT_REJECTION    9.82e-5   3.04e-4  0.0301   
 6 effectOf5XFAD_3… HALLMARK_INTERFERON_GAMMA_R…    9.86e-5   3.04e-4  0.0301   
 7 effectOf5XFAD_3… HALLMARK_PROTEIN_SECRETION      8.57e-4   1.83e-3  0.206    
 8 effectOf5XFAD_3… HALLMARK_UV_RESPONSE_DN         1.86e-3   3.69e-3  0.417    
 9 effectOf5XFAD_3… HALLMARK_PI3K_AKT_MTOR_SIGN…    2.27e-3   4.40e-3  0.497    
10 effectOf5XFAD_3… HALLMARK_COMPLEMENT             5.80e-3   1.05e-2  1        
# … with 40 more rows

$effectOf5XFAD_6mth
# A tibble: 50 x 5
   id             Geneset                      wilkinsonp        fdr  bonferroni
   <chr>          <chr>                             <dbl>      <dbl>       <dbl>
 1 effectOf5XFAD… HALLMARK_HEDGEHOG_SIGNALING    1.70e-10    4.22e-8     7.67e-8
 2 effectOf5XFAD… HALLMARK_APICAL_SURFACE        2.81e-10    4.22e-8     1.26e-7
 3 effectOf5XFAD… HALLMARK_EPITHELIAL_MESENCH…   1.08e- 9    1.21e-7     4.81e-7
 4 effectOf5XFAD… HALLMARK_ANGIOGENESIS          1.50e- 9    1.32e-7     6.67e-7
 5 effectOf5XFAD… HALLMARK_APOPTOSIS             1.76e- 9    1.32e-7     7.82e-7
 6 effectOf5XFAD… HALLMARK_APICAL_JUNCTION       8.06e- 8    3.52e-6     3.55e-5
 7 effectOf5XFAD… HALLMARK_ANDROGEN_RESPONSE     1.31e- 7    4.20e-6     5.70e-5
 8 effectOf5XFAD… HALLMARK_TNFA_SIGNALING_VIA…   3.23e- 7    7.27e-6     1.39e-4
 9 effectOf5XFAD… HALLMARK_COMPLEMENT            3.77e- 7    8.08e-6     1.62e-4
10 effectOf5XFAD… HALLMARK_MYOGENESIS            5.22e- 7    9.59e-6     2.24e-4
# … with 40 more rows

GSE142633_gseaResults_h$combTest

$aging_5XFAD_11vs6mth
# A tibble: 50 x 5
   id                Geneset                   wilkinsonp        fdr  bonferroni
   <chr>             <chr>                          <dbl>      <dbl>       <dbl>
 1 aging_5XFAD_11vs… HALLMARK_ANGIOGENESIS       1.36e-10    1.36e-8     2.70e-8
 2 aging_5XFAD_11vs… HALLMARK_SPERMATOGENESIS    1.52e- 8    1.44e-7     2.73e-6
 3 aging_5XFAD_11vs… HALLMARK_COAGULATION        4.55e- 8    3.37e-7     7.91e-6
 4 aging_5XFAD_11vs… HALLMARK_BILE_ACID_METAB…   7.98e- 8    4.99e-7     1.36e-5
 5 aging_5XFAD_11vs… HALLMARK_HEME_METABOLISM    2.57e- 7    1.22e-6     4.08e-5
 6 aging_5XFAD_11vs… HALLMARK_UV_RESPONSE_DN     2.80e- 7    1.30e-6     4.43e-5
 7 aging_5XFAD_11vs… HALLMARK_HYPOXIA            3.03e- 7    1.38e-6     4.76e-5
 8 aging_5XFAD_11vs… HALLMARK_TGF_BETA_SIGNAL…   4.09e- 7    1.78e-6     6.34e-5
 9 aging_5XFAD_11vs… HALLMARK_INFLAMMATORY_RE…   4.33e- 7    1.84e-6     6.67e-5
10 aging_5XFAD_11vs… HALLMARK_KRAS_SIGNALING_…   5.51e- 7    2.20e-6     8.32e-5
# … with 40 more rows

$aging_WT_11vs6mth
# A tibble: 50 x 5
   id             Geneset                         wilkinsonp      fdr bonferroni
   <chr>          <chr>                                <dbl>    <dbl>      <dbl>
 1 aging_WT_11vs… HALLMARK_ANGIOGENESIS            0.0000234  5.49e-5    0.00271
 2 aging_WT_11vs… HALLMARK_HEME_METABOLISM         0.0000659  1.33e-4    0.00672
 3 aging_WT_11vs… HALLMARK_HYPOXIA                 0.0000718  1.38e-4    0.00725
 4 aging_WT_11vs… HALLMARK_APICAL_JUNCTION         0.0000723  1.38e-4    0.00725
 5 aging_WT_11vs… HALLMARK_KRAS_SIGNALING_UP       0.0000723  1.38e-4    0.00725
 6 aging_WT_11vs… HALLMARK_INFLAMMATORY_RESPONSE   0.0000724  1.38e-4    0.00725
 7 aging_WT_11vs… HALLMARK_MITOTIC_SPINDLE         0.0000725  1.38e-4    0.00725
 8 aging_WT_11vs… HALLMARK_EPITHELIAL_MESENCHYMA…  0.0000726  1.38e-4    0.00725
 9 aging_WT_11vs… HALLMARK_UV_RESPONSE_DN          0.0000735  1.39e-4    0.00725
10 aging_WT_11vs… HALLMARK_REACTIVE_OXYGEN_SPECI…  0.0000846  1.57e-4    0.00786
# … with 40 more rows

$effectOf5XFAD_11mth
# A tibble: 50 x 5
   id             Geneset                      wilkinsonp        fdr  bonferroni
   <chr>          <chr>                             <dbl>      <dbl>       <dbl>
 1 effectOf5XFAD… HALLMARK_CHOLESTEROL_HOMEOS…   6.61e-12    1.32e-9     1.32e-9
 2 effectOf5XFAD… HALLMARK_COAGULATION           4.36e-10    2.20e-8     8.63e-8
 3 effectOf5XFAD… HALLMARK_ANGIOGENESIS          4.40e-10    2.20e-8     8.66e-8
 4 effectOf5XFAD… HALLMARK_ESTROGEN_RESPONSE_…   7.81e-10    3.12e-8     1.53e-7
 5 effectOf5XFAD… HALLMARK_APICAL_SURFACE        1.11e- 9    3.69e-8     2.16e-7
 6 effectOf5XFAD… HALLMARK_HEME_METABOLISM       2.46e- 9    6.09e-8     4.78e-7
 7 effectOf5XFAD… HALLMARK_ANDROGEN_RESPONSE     3.29e- 9    6.09e-8     6.29e-7
 8 effectOf5XFAD… HALLMARK_HEDGEHOG_SIGNALING    3.84e- 9    6.27e-8     7.26e-7
 9 effectOf5XFAD… HALLMARK_HYPOXIA               4.07e- 9    6.27e-8     7.66e-7
10 effectOf5XFAD… HALLMARK_EPITHELIAL_MESENCH…   5.15e- 9    7.07e-8     9.62e-7
# … with 40 more rows

$effectOf5XFAD_6mth
# A tibble: 50 x 5
   id              Geneset                      wilkinsonp        fdr bonferroni
   <chr>           <chr>                             <dbl>      <dbl>      <dbl>
 1 effectOf5XFAD_… HALLMARK_COAGULATION            2.97e-9    6.09e-8    5.74e-7
 2 effectOf5XFAD_… HALLMARK_TNFA_SIGNALING_V…      3.15e-9    6.09e-8    6.04e-7
 3 effectOf5XFAD_… HALLMARK_APICAL_SURFACE         3.35e-9    6.09e-8    6.37e-7
 4 effectOf5XFAD_… HALLMARK_HEDGEHOG_SIGNALI…      5.52e-9    7.07e-8    1.03e-6
 5 effectOf5XFAD_… HALLMARK_CHOLESTEROL_HOME…      1.79e-8    1.56e-7    3.19e-6
 6 effectOf5XFAD_… HALLMARK_APICAL_JUNCTION        4.39e-8    3.37e-7    7.72e-6
 7 effectOf5XFAD_… HALLMARK_IL2_STAT5_SIGNAL…      5.97e-8    4.16e-7    1.03e-5
 8 effectOf5XFAD_… HALLMARK_HEME_METABOLISM        6.04e-8    4.16e-7    1.04e-5
 9 effectOf5XFAD_… HALLMARK_COMPLEMENT             8.18e-8    4.99e-7    1.38e-5
10 effectOf5XFAD_… HALLMARK_KRAS_SIGNALING_UP      8.60e-8    5.06e-7    1.44e-5
# … with 40 more rows
…
Effect of 5XFAD mutation also seems consistent across datasets:

GSE140286_gseaResults_h$combTest$effectOf5XFAD_12mth %>%
  dplyr::filter(bonferroni < 0.05)

# A tibble: 44 x 5
   id             Geneset                       wilkinsonp        fdr bonferroni
   <chr>          <chr>                              <dbl>      <dbl>      <dbl>
 1 effectOf5XFAD… HALLMARK_HEDGEHOG_SIGNALING     2.75e-10    4.22e-8    1.23e-7
 2 effectOf5XFAD… HALLMARK_APICAL_SURFACE         5.52e- 9    3.55e-7    2.45e-6
 3 effectOf5XFAD… HALLMARK_APOPTOSIS              2.30e- 8    1.29e-6    1.02e-5
 4 effectOf5XFAD… HALLMARK_UV_RESPONSE_UP         5.88e- 8    2.94e-6    2.60e-5
 5 effectOf5XFAD… HALLMARK_EPITHELIAL_MESENCHY…   8.60e- 8    3.52e-6    3.78e-5
 6 effectOf5XFAD… HALLMARK_ANGIOGENESIS           1.26e- 7    4.20e-6    5.52e-5
 7 effectOf5XFAD… HALLMARK_KRAS_SIGNALING_DN      1.46e- 7    4.35e-6    6.35e-5
 8 effectOf5XFAD… HALLMARK_TNFA_SIGNALING_VIA_…   1.55e- 7    4.35e-6    6.73e-5
 9 effectOf5XFAD… HALLMARK_TGF_BETA_SIGNALING     2.34e- 7    5.84e-6    1.01e-4
10 effectOf5XFAD… HALLMARK_UV_RESPONSE_DN         2.79e- 7    6.60e-6    1.20e-4
# … with 34 more rows

GSE142633_gseaResults_h$combTest$effectOf5XFAD_11mth%>%
  dplyr::filter(bonferroni < 0.05)

# A tibble: 39 x 5
   id             Geneset                      wilkinsonp        fdr  bonferroni
   <chr>          <chr>                             <dbl>      <dbl>       <dbl>
 1 effectOf5XFAD… HALLMARK_CHOLESTEROL_HOMEOS…   6.61e-12    1.32e-9     1.32e-9
 2 effectOf5XFAD… HALLMARK_COAGULATION           4.36e-10    2.20e-8     8.63e-8
 3 effectOf5XFAD… HALLMARK_ANGIOGENESIS          4.40e-10    2.20e-8     8.66e-8
 4 effectOf5XFAD… HALLMARK_ESTROGEN_RESPONSE_…   7.81e-10    3.12e-8     1.53e-7
 5 effectOf5XFAD… HALLMARK_APICAL_SURFACE        1.11e- 9    3.69e-8     2.16e-7
 6 effectOf5XFAD… HALLMARK_HEME_METABOLISM       2.46e- 9    6.09e-8     4.78e-7
 7 effectOf5XFAD… HALLMARK_ANDROGEN_RESPONSE     3.29e- 9    6.09e-8     6.29e-7
 8 effectOf5XFAD… HALLMARK_HEDGEHOG_SIGNALING    3.84e- 9    6.27e-8     7.26e-7
 9 effectOf5XFAD… HALLMARK_HYPOXIA               4.07e- 9    6.27e-8     7.66e-7
10 effectOf5XFAD… HALLMARK_EPITHELIAL_MESENCH…   5.15e- 9    7.07e-8     9.62e-7
# … with 29 more rows
…
