Import 5XFAD Mouse Data
…
counts

# A tibble: 37,991 x 16
   Gene  SJMMALZ058765_G1 SJMMALZ058766_G1 SJMMALZ058768_G1 SJMMALZ058769_G1
   <chr>            <dbl>            <dbl>            <dbl>            <dbl>
 1 ENSM…            23145            23668            27445            24838
 2 ENSM…                0                0                0                1
 3 ENSM…                0                3                2                3
 4 ENSM…             6664             6084             8344             8552
 5 ENSM…                3                4                6                6
 6 ENSM…               73               11               63               24
 7 ENSM…            17525            18604            20293            22173
 8 ENSM…             1417             1840             1610             2683
 9 ENSM…            20938            20240            22835            26377
10 ENSM…              899             1282             1276             1702
# … with 37,981 more rows, and 11 more variables: SJMMALZ058771_G1 <dbl>,
#   SJMMALZ058772_G1 <dbl>, SJMMALZ058773_G1 <dbl>, SJMMALZ058774_G1 <dbl>,
#   SJMMALZ058775_G1 <dbl>, SJMMALZ058776_G1 <dbl>, SJMMALZ058778_G1 <dbl>,
#   SJMMALZ058779_G1 <dbl>, SJMMALZ058780_G1 <dbl>, SJMMALZ058781_G1 <dbl>,
#   SJMMALZ058782_G1 <dbl>
…
