PathwayPCA on Mayo Clinic RNA-seq dataset
…
Part 1: Calculate Pathway AES-PCs

Initializing Computing Cluster: DONE
Extracting Pathway PCs in Parallel: DONE

Part 2: Calculate Pathway p-Values
Initializing Computing Cluster: DONE
Extracting Pathway p-Values in Parallel: DONE

Part 3: Adjusting p-Values and Sorting Pathway p-Value Data Frame
DONE

test_genotype_t$pVals_df 

# A tibble: 50 x 6
   pathways              n_tested terms                  rawp FWER_Holm   FDR_BH
 * <chr>                    <int> <chr>                 <dbl>     <dbl>    <dbl>
 1 HALLMARK_ANGIOGENESIS       36 HALLMARK_ANGIOGEN… 5.87e-12  2.93e-10 1.76e-10
 2 HALLMARK_EPITHELIAL_…      200 HALLMARK_EPITHELI… 7.04e-12  3.45e-10 1.76e-10
 3 HALLMARK_ESTROGEN_RE…      200 HALLMARK_ESTROGEN… 1.08e-11  5.17e-10 1.79e-10
 4 HALLMARK_CHOLESTEROL…       74 HALLMARK_CHOLESTE… 1.98e-11  9.31e-10 2.48e-10
 5 HALLMARK_APICAL_JUNC…      201 HALLMARK_APICAL_J… 2.53e-11  1.16e- 9 2.53e-10
 6 HALLMARK_COAGULATION       138 HALLMARK_COAGULAT… 6.56e-11  2.95e- 9 5.47e-10
 7 HALLMARK_TGF_BETA_SI…       54 HALLMARK_TGF_BETA… 9.49e-11  4.18e- 9 6.78e-10
 8 HALLMARK_APOPTOSIS         161 HALLMARK_APOPTOSIS 2.08e-10  8.93e- 9 1.12e- 9
 9 HALLMARK_UV_RESPONSE…      145 HALLMARK_UV_RESPO… 2.21e-10  9.29e- 9 1.12e- 9
10 HALLMARK_ESTROGEN_RE…      200 HALLMARK_ESTROGEN… 2.24e-10  9.29e- 9 1.12e- 9
# … with 40 more rows

sigSets_t <- test_genotype_t$pVals_df %>%
  dplyr::filter(FDR_BH < 0.05)

sigSets_t

# A tibble: 43 x 6
   pathways              n_tested terms                  rawp FWER_Holm   FDR_BH
   <chr>                    <int> <chr>                 <dbl>     <dbl>    <dbl>
 1 HALLMARK_ANGIOGENESIS       36 HALLMARK_ANGIOGEN… 5.87e-12  2.93e-10 1.76e-10
 2 HALLMARK_EPITHELIAL_…      200 HALLMARK_EPITHELI… 7.04e-12  3.45e-10 1.76e-10
 3 HALLMARK_ESTROGEN_RE…      200 HALLMARK_ESTROGEN… 1.08e-11  5.17e-10 1.79e-10
 4 HALLMARK_CHOLESTEROL…       74 HALLMARK_CHOLESTE… 1.98e-11  9.31e-10 2.48e-10
 5 HALLMARK_APICAL_JUNC…      201 HALLMARK_APICAL_J… 2.53e-11  1.16e- 9 2.53e-10
 6 HALLMARK_COAGULATION       138 HALLMARK_COAGULAT… 6.56e-11  2.95e- 9 5.47e-10
 7 HALLMARK_TGF_BETA_SI…       54 HALLMARK_TGF_BETA… 9.49e-11  4.18e- 9 6.78e-10
 8 HALLMARK_APOPTOSIS         161 HALLMARK_APOPTOSIS 2.08e-10  8.93e- 9 1.12e- 9
 9 HALLMARK_UV_RESPONSE…      145 HALLMARK_UV_RESPO… 2.21e-10  9.29e- 9 1.12e- 9
10 HALLMARK_ESTROGEN_RE…      200 HALLMARK_ESTROGEN… 2.24e-10  9.29e- 9 1.12e- 9
# … with 33 more rows
…
Part 1: Calculate Pathway AES-PCs

Initializing Computing Cluster: DONE
Extracting Pathway PCs in Parallel: DONE

Part 2: Calculate Pathway p-Values
Initializing Computing Cluster: DONE
Extracting Pathway p-Values in Parallel: DONE

Part 3: Adjusting p-Values and Sorting Pathway p-Value Data Frame
DONE

test_genotype_c$pVals_df 

# A tibble: 50 x 6
   pathways            n_tested terms                  rawp  FWER_Holm    FDR_BH
 * <chr>                  <int> <chr>                 <dbl>      <dbl>     <dbl>
 1 HALLMARK_BILE_ACID…      112 HALLMARK_BILE_ACI… 5.02e-10    2.51e-8   2.51e-8
 2 HALLMARK_G2M_CHECK…      200 HALLMARK_G2M_CHEC… 1.35e- 9    6.63e-8   3.14e-8
 3 HALLMARK_FATTY_ACI…      158 HALLMARK_FATTY_AC… 1.88e- 9    9.05e-8   3.14e-8
 4 HALLMARK_PEROXISOME      104 HALLMARK_PEROXISO… 7.23e- 9    3.40e-7   9.04e-8
 5 HALLMARK_ADIPOGENE…      200 HALLMARK_ADIPOGEN… 1.68e- 8    7.72e-7   1.68e-7
 6 HALLMARK_E2F_TARGE…      200 HALLMARK_E2F_TARG… 2.21e- 8    9.92e-7   1.84e-7
 7 HALLMARK_SPERMATOG…      133 HALLMARK_SPERMATO… 4.26e- 8    1.88e-6   3.05e-7
 8 HALLMARK_PANCREAS_…       40 HALLMARK_PANCREAS… 1.03e- 6    4.42e-5   6.43e-6
 9 HALLMARK_NOTCH_SIG…       32 HALLMARK_NOTCH_SI… 2.56e- 6    1.07e-4   1.42e-5
10 HALLMARK_GLYCOLYSIS      200 HALLMARK_GLYCOLYS… 3.27e- 6    1.34e-4   1.63e-5
# … with 40 more rows

sigSets_c <- test_genotype_c$pVals_df %>%
  dplyr::filter(FDR_BH < 0.05)

sigSets_c

# A tibble: 45 x 6
   pathways            n_tested terms                  rawp  FWER_Holm    FDR_BH
   <chr>                  <int> <chr>                 <dbl>      <dbl>     <dbl>
 1 HALLMARK_BILE_ACID…      112 HALLMARK_BILE_ACI… 5.02e-10    2.51e-8   2.51e-8
 2 HALLMARK_G2M_CHECK…      200 HALLMARK_G2M_CHEC… 1.35e- 9    6.63e-8   3.14e-8
 3 HALLMARK_FATTY_ACI…      158 HALLMARK_FATTY_AC… 1.88e- 9    9.05e-8   3.14e-8
 4 HALLMARK_PEROXISOME      104 HALLMARK_PEROXISO… 7.23e- 9    3.40e-7   9.04e-8
 5 HALLMARK_ADIPOGENE…      200 HALLMARK_ADIPOGEN… 1.68e- 8    7.72e-7   1.68e-7
 6 HALLMARK_E2F_TARGE…      200 HALLMARK_E2F_TARG… 2.21e- 8    9.92e-7   1.84e-7
 7 HALLMARK_SPERMATOG…      133 HALLMARK_SPERMATO… 4.26e- 8    1.88e-6   3.05e-7
 8 HALLMARK_PANCREAS_…       40 HALLMARK_PANCREAS… 1.03e- 6    4.42e-5   6.43e-6
 9 HALLMARK_NOTCH_SIG…       32 HALLMARK_NOTCH_SI… 2.56e- 6    1.07e-4   1.42e-5
10 HALLMARK_GLYCOLYSIS      200 HALLMARK_GLYCOLYS… 3.27e- 6    1.34e-4   1.63e-5
# … with 35 more rows
…
