PathwayPCA on 5XFAD Mouse Dataset
…
Part 1: Calculate Pathway AES-PCs

Initializing Computing Cluster: DONE
Extracting Pathway PCs in Parallel: DONE

Part 2: Calculate Pathway p-Values
Initializing Computing Cluster: DONE
Extracting Pathway p-Values in Parallel: DONE

Part 3: Adjusting p-Values and Sorting Pathway p-Value Data Frame
DONE

test_genotype$pVals_df 

# A tibble: 50 x 6
   pathways              n_tested terms                   rawp FWER_Holm  FDR_BH
 * <chr>                    <int> <chr>                  <dbl>     <dbl>   <dbl>
 1 HALLMARK_ALLOGRAFT_R…      200 HALLMARK_ALLOGRAFT…  3.16e-5   0.00158 3.16e-4
 2 HALLMARK_INTERFERON_…      116 HALLMARK_INTERFERO…  3.16e-5   0.00158 3.16e-4
 3 HALLMARK_MYC_TARGETS…       51 HALLMARK_MYC_TARGE…  3.16e-5   0.00158 3.16e-4
 4 HALLMARK_INTERFERON_…      209 HALLMARK_INTERFERO…  3.16e-5   0.00158 3.16e-4
 5 HALLMARK_CHOLESTEROL…       74 HALLMARK_CHOLESTER…  3.16e-5   0.00158 3.16e-4
 6 HALLMARK_IL6_JAK_STA…       84 HALLMARK_IL6_JAK_S…  2.20e-4   0.00988 1.41e-3
 7 HALLMARK_INFLAMMATOR…      201 HALLMARK_INFLAMMAT…  2.24e-4   0.00988 1.41e-3
 8 HALLMARK_APOPTOSIS         159 HALLMARK_APOPTOSIS   2.26e-4   0.00988 1.41e-3
 9 HALLMARK_COAGULATION       134 HALLMARK_COAGULATI…  4.20e-4   0.0176  2.33e-3
10 HALLMARK_TGF_BETA_SI…       54 HALLMARK_TGF_BETA_…  6.90e-4   0.0283  3.45e-3
# … with 40 more rows
…
