PathwayPCA on fAD-like zebrafish
…
Part 1: Calculate Pathway AES-PCs

Initializing Computing Cluster: DONE
Extracting Pathway PCs in Parallel: DONE

Part 2: Calculate Pathway p-Values
Initializing Computing Cluster: DONE
Extracting Pathway p-Values in Parallel: DONE

Part 3: Adjusting p-Values and Sorting Pathway p-Value Data Frame
DONE

test_genotype$pVals_df 

# A tibble: 50 x 6
   pathways              n_tested terms                   rawp FWER_Holm  FDR_BH
 * <chr>                    <int> <chr>                  <dbl>     <dbl>   <dbl>
 1 HALLMARK_INTERFERON_…      273 HALLMARK_INTERFERO…  1.13e-5  0.000567 5.67e-4
 2 HALLMARK_OXIDATIVE_P…      223 HALLMARK_OXIDATIVE…  3.80e-5  0.00186  7.64e-4
 3 HALLMARK_FATTY_ACID_…      200 HALLMARK_FATTY_ACI…  4.58e-5  0.00220  7.64e-4
 4 HALLMARK_APICAL_SURF…       68 HALLMARK_APICAL_SU…  8.85e-5  0.00416  1.11e-3
 5 HALLMARK_NOTCH_SIGNA…       43 HALLMARK_NOTCH_SIG…  1.77e-4  0.00812  1.77e-3
 6 HALLMARK_INTERFERON_…      114 HALLMARK_INTERFERO…  1.17e-3  0.0527   9.77e-3
 7 HALLMARK_IL6_JAK_STA…      106 HALLMARK_IL6_JAK_S…  5.12e-3  0.225    3.66e-2
 8 HALLMARK_BILE_ACID_M…      133 HALLMARK_BILE_ACID…  1.06e-2  0.456    6.63e-2
 9 HALLMARK_INFLAMMATOR…      244 HALLMARK_INFLAMMAT…  1.20e-2  0.505    6.68e-2
10 HALLMARK_UNFOLDED_PR…      150 HALLMARK_UNFOLDED_…  2.14e-2  0.876    1.05e-1
# … with 40 more rows
…
