PathwayPCA on 5XFAD Mouse Dataset 2
…
Part 1: Calculate Pathway AES-PCs

Initializing Computing Cluster: DONE
Extracting Pathway PCs in Parallel: DONE

Part 2: Calculate Pathway p-Values
Initializing Computing Cluster: DONE
Extracting Pathway p-Values in Parallel: DONE

Part 3: Adjusting p-Values and Sorting Pathway p-Value Data Frame
DONE

test_genotype$pVals_df 

# A tibble: 50 x 6
   pathways              n_tested terms                   rawp FWER_Holm  FDR_BH
 * <chr>                    <int> <chr>                  <dbl>     <dbl>   <dbl>
 1 HALLMARK_INTERFERON_…      203 HALLMARK_INTERFERON… 1.27e-4   0.00634 1.59e-4
 2 HALLMARK_INFLAMMATOR…      201 HALLMARK_INFLAMMATO… 1.27e-4   0.00634 1.59e-4
 3 HALLMARK_CHOLESTEROL…       74 HALLMARK_CHOLESTERO… 1.27e-4   0.00634 1.59e-4
 4 HALLMARK_COAGULATION       131 HALLMARK_COAGULATION 1.27e-4   0.00634 1.59e-4
 5 HALLMARK_IL2_STAT5_S…      202 HALLMARK_IL2_STAT5_… 1.27e-4   0.00634 1.59e-4
 6 HALLMARK_REACTIVE_OX…       49 HALLMARK_REACTIVE_O… 1.27e-4   0.00634 1.59e-4
 7 HALLMARK_COMPLEMENT        199 HALLMARK_COMPLEMENT  1.27e-4   0.00634 1.59e-4
 8 HALLMARK_ADIPOGENESIS      198 HALLMARK_ADIPOGENES… 1.27e-4   0.00634 1.59e-4
 9 HALLMARK_APOPTOSIS         159 HALLMARK_APOPTOSIS   1.27e-4   0.00634 1.59e-4
10 HALLMARK_APICAL_JUNC…      205 HALLMARK_APICAL_JUN… 1.27e-4   0.00634 1.59e-4
# … with 40 more rows

sigSets <- test_genotype$pVals_df %>%
  dplyr::filter(FWER_Holm < 0.05)

sigSets

# A tibble: 45 x 6
   pathways              n_tested terms                   rawp FWER_Holm  FDR_BH
   <chr>                    <int> <chr>                  <dbl>     <dbl>   <dbl>
 1 HALLMARK_INTERFERON_…      203 HALLMARK_INTERFERON… 1.27e-4   0.00634 1.59e-4
 2 HALLMARK_INFLAMMATOR…      201 HALLMARK_INFLAMMATO… 1.27e-4   0.00634 1.59e-4
 3 HALLMARK_CHOLESTEROL…       74 HALLMARK_CHOLESTERO… 1.27e-4   0.00634 1.59e-4
 4 HALLMARK_COAGULATION       131 HALLMARK_COAGULATION 1.27e-4   0.00634 1.59e-4
 5 HALLMARK_IL2_STAT5_S…      202 HALLMARK_IL2_STAT5_… 1.27e-4   0.00634 1.59e-4
 6 HALLMARK_REACTIVE_OX…       49 HALLMARK_REACTIVE_O… 1.27e-4   0.00634 1.59e-4
 7 HALLMARK_COMPLEMENT        199 HALLMARK_COMPLEMENT  1.27e-4   0.00634 1.59e-4
 8 HALLMARK_ADIPOGENESIS      198 HALLMARK_ADIPOGENES… 1.27e-4   0.00634 1.59e-4
 9 HALLMARK_APOPTOSIS         159 HALLMARK_APOPTOSIS   1.27e-4   0.00634 1.59e-4
10 HALLMARK_APICAL_JUNC…      205 HALLMARK_APICAL_JUN… 1.27e-4   0.00634 1.59e-4
# … with 35 more rows
…
