testing-pathwayPCA
…
Initializing Computing Cluster: DONE
Extracting Pathway PCs in Parallel: DONE

Part 2: Calculate Pathway p-Values
Initializing Computing Cluster: DONE
Extracting Pathway p-Values in Parallel: DONE

Part 3: Adjusting p-Values and Sorting Pathway p-Value Data Frame
DONE

# Results
testReg$pVals_df

# A tibble: 50 x 6
   pathways                n_tested terms                  rawp FWER_Holm FDR_BH
 * <chr>                      <int> <chr>                 <dbl>     <dbl>  <dbl>
 1 HALLMARK_TNFA_SIGNALIN…      219 HALLMARK_TNFA_SIGNA… 0.0280         1  0.370
 2 HALLMARK_HYPOXIA             210 HALLMARK_HYPOXIA     0.0288         1  0.370
 3 HALLMARK_APOPTOSIS           175 HALLMARK_APOPTOSIS   0.0332         1  0.370
 4 HALLMARK_IL2_STAT5_SIG…      209 HALLMARK_IL2_STAT5_… 0.0499         1  0.370
 5 HALLMARK_PI3K_AKT_MTOR…      121 HALLMARK_PI3K_AKT_M… 0.0537         1  0.370
 6 HALLMARK_ANDROGEN_RESP…      103 HALLMARK_ANDROGEN_R… 0.0569         1  0.370
 7 HALLMARK_HEDGEHOG_SIGN…       42 HALLMARK_HEDGEHOG_S… 0.0634         1  0.370
 8 HALLMARK_ESTROGEN_RESP…      208 HALLMARK_ESTROGEN_R… 0.0644         1  0.370
 9 HALLMARK_UNFOLDED_PROT…      131 HALLMARK_UNFOLDED_P… 0.0758         1  0.370
10 HALLMARK_P53_PATHWAY         215 HALLMARK_P53_PATHWAY 0.0816         1  0.370
# … with 40 more rows
…
Part 1: Calculate Pathway AES-PCs

Initializing Computing Cluster: DONE
Extracting Pathway PCs in Parallel: DONE

Part 2: Calculate Pathway p-Values
Initializing Computing Cluster: DONE
Extracting Pathway p-Values in Parallel: DONE

Part 3: Adjusting p-Values and Sorting Pathway p-Value Data Frame
DONE

test_AD$pVals_df 

# A tibble: 50 x 6
   pathways              n_tested terms                   rawp FWER_Holm  FDR_BH
 * <chr>                    <int> <chr>                  <dbl>     <dbl>   <dbl>
 1 HALLMARK_PI3K_AKT_MT…      121 HALLMARK_PI3K_AKT_…  1.13e-5  0.000566 4.78e-4
 2 HALLMARK_TGF_BETA_SI…       67 HALLMARK_TGF_BETA_…  1.91e-5  0.000936 4.78e-4
 3 HALLMARK_ESTROGEN_RE…      208 HALLMARK_ESTROGEN_…  4.79e-5  0.00230  4.90e-4
 4 HALLMARK_UV_RESPONSE…      153 HALLMARK_UV_RESPON…  4.83e-5  0.00230  4.90e-4
 5 HALLMARK_IL2_STAT5_S…      209 HALLMARK_IL2_STAT5…  5.69e-5  0.00262  4.90e-4
 6 HALLMARK_HYPOXIA           210 HALLMARK_HYPOXIA     6.43e-5  0.00289  4.90e-4
 7 HALLMARK_KRAS_SIGNAL…      211 HALLMARK_KRAS_SIGN…  7.28e-5  0.00320  4.90e-4
 8 HALLMARK_REACTIVE_OX…       52 HALLMARK_REACTIVE_…  7.84e-5  0.00337  4.90e-4
 9 HALLMARK_APOPTOSIS         175 HALLMARK_APOPTOSIS   1.06e-4  0.00446  5.90e-4
10 HALLMARK_NOTCH_SIGNA…       35 HALLMARK_NOTCH_SIG…  1.48e-4  0.00607  6.80e-4
# … with 40 more rows

sigSets <- test_AD$pVals_df %>%
  dplyr::filter(FWER_Holm < 0.05)

sigSets

# A tibble: 27 x 6
   pathways              n_tested terms                   rawp FWER_Holm  FDR_BH
   <chr>                    <int> <chr>                  <dbl>     <dbl>   <dbl>
 1 HALLMARK_PI3K_AKT_MT…      121 HALLMARK_PI3K_AKT_…  1.13e-5  0.000566 4.78e-4
 2 HALLMARK_TGF_BETA_SI…       67 HALLMARK_TGF_BETA_…  1.91e-5  0.000936 4.78e-4
 3 HALLMARK_ESTROGEN_RE…      208 HALLMARK_ESTROGEN_…  4.79e-5  0.00230  4.90e-4
 4 HALLMARK_UV_RESPONSE…      153 HALLMARK_UV_RESPON…  4.83e-5  0.00230  4.90e-4
 5 HALLMARK_IL2_STAT5_S…      209 HALLMARK_IL2_STAT5…  5.69e-5  0.00262  4.90e-4
 6 HALLMARK_HYPOXIA           210 HALLMARK_HYPOXIA     6.43e-5  0.00289  4.90e-4
 7 HALLMARK_KRAS_SIGNAL…      211 HALLMARK_KRAS_SIGN…  7.28e-5  0.00320  4.90e-4
 8 HALLMARK_REACTIVE_OX…       52 HALLMARK_REACTIVE_…  7.84e-5  0.00337  4.90e-4
 9 HALLMARK_APOPTOSIS         175 HALLMARK_APOPTOSIS   1.06e-4  0.00446  5.90e-4
10 HALLMARK_NOTCH_SIGNA…       35 HALLMARK_NOTCH_SIG…  1.48e-4  0.00607  6.80e-4
# … with 17 more rows
…
